{
    "__comments__": "New and Deleted items are simple String list. For renamed you will need to provide an object with 2 props: newName, oldName",
    "new": [
        "backoffice.audit",
        "backoffice.authenticated",
        "backoffice.authenticated.password",
        "backoffice.backofficeUsers.approve",
        "backoffice.backofficeUsers.list",
        "backoffice.backofficeUsers.manage",
        "backoffice.biclient.reports.list",
        "backoffice.bpmprocesses.approve",
        "backoffice.bpmprocesses.list",
        "backoffice.bpmprocesses.manage",
        "backoffice.campaigns.approve",
        "backoffice.campaigns.list",
        "backoffice.campaigns.manage",
        "backoffice.caps.list",
        "backoffice.caps.manage",
        "backoffice.caps.approve",
        "backoffice.capscontrol.approve",
        "backoffice.capscontrol.manage",
        "backoffice.clientAudit",
        "backoffice.cohorts.approve",
        "backoffice.cohorts.list",
        "backoffice.cohorts.manage",
        "backoffice.communications",
        "backoffice.communications.approve",
        "backoffice.communications.process",
        "backoffice.communicationsTrays",
        "backoffice.communicationstrays.manage",
        "backoffice.communicationstrays.approve",
        "backoffice.configuration.business.approve",
        "backoffice.configuration.business.approve.advanced",
        "backoffice.configuration.business.list",
        "backoffice.configuration.business.manage",
        "backoffice.configuration.business.manage.advanced",
        "backoffice.configuration.security.approve",
        "backoffice.configuration.security.approve.advanced",
        "backoffice.configuration.security.list",
        "backoffice.configuration.security.manage",
        "backoffice.configuration.security.manage.advanced",
        "backoffice.configuration.technical.approve",
        "backoffice.configuration.technical.approve.advanced",
        "backoffice.configuration.technical.list",
        "backoffice.configuration.technical.manage",
        "backoffice.configuration.technical.manage.advanced",
        "backoffice.customerEngagement.view",
        "backoffice.daemons.list",
        "backoffice.daemons.manage",
        "backoffice.environments.approve",
        "backoffice.environments.holdings.approve",
        "backoffice.environments.holdings.manage",
        "backoffice.environments.list",
        "backoffice.environments.manage",
        "backoffice.features.approve",
        "backoffice.features.manage",
        "backoffice.forms.approve",
        "backoffice.forms.list",
        "backoffice.forms.manage",
        "backoffice.generalconditions.list",
        "backoffice.groups.approve",
        "backoffice.groups.list",
        "backoffice.groups.manage",
        "backoffice.inbox",
        "backoffice.inbox.instanceList",
        "backoffice.invitationCodes.approve",
        "backoffice.invitationCodes.list",
        "backoffice.invitationCodes.manage",
        "backoffice.login",
        "backoffice.massiveData.allow",
        "backoffice.messages.approve",
        "backoffice.messages.create",
        "backoffice.messages.list",
        "backoffice.messages.manage",
        "backoffice.offline.approve",
        "backoffice.offline.manage",
        "backoffice.pendingActions",
        "backoffice.pointsofinterest.approve",
        "backoffice.pointsofinterest.list",
        "backoffice.pointsofinterest.manage",
        "backoffice.productrequest.list",
        "backoffice.productrequest.read",
        "backoffice.profile",
        "backoffice.profiles.approve",
        "backoffice.profiles.list",
        "backoffice.profiles.manage",
        "backoffice.qualityattention",
        "backoffice.ses.admin.exportMasterKey",
        "backoffice.ses.admin.restoreMasterKey",
        "backoffice.transactions",
        "backoffice.transactions.changeStatus.approve",
        "backoffice.transactions.changeStatus.manage",
        "backoffice.users.approve",
        "backoffice.users.changeStatus",
        "backoffice.users.changeStatus.approve",
        "backoffice.users.list",
        "backoffice.users.manage",
        "backoffice.users.recoverPinAndPassword",
        "backoffice.generalconditions.manage",
        "backoffice.generalconditions.approve",
        "backoffice.cybo.safeway.audit"
    ],
    "renamed": [{
        "newName": "backoffice.communicationstrays.list", "oldName": "backoffice.communicationsTrays"
    }],
    "deleted": []
}