<svg xmlns="http://www.w3.org/2000/svg" class="credit-card-expired-icon" viewBox="0 0 64 50">
  <defs>
    <style>
      .credit-card-expired-icon .cls-1 {
        fill: #b34b4b;
      }

      .credit-card-expired-icon .cls-1, .credit-card-expired-icon .cls-2, .credit-card-expired-icon .cls-3 {
        stroke: #fff;
        stroke-width: 2px;
      }

      .credit-card-expired-icon .cls-1, .credit-card-expired-icon .cls-2 {
        stroke-miterlimit: 10;
      }

      .credit-card-expired-icon .cls-2, .credit-card-expired-icon .cls-3 {
        fill: none;
      }
    </style>
  </defs>
  <g id="Group_2301" data-name="Group 2301" transform="translate(-878 -85)">
    <path id="Path_1506" data-name="Path 1506" class="cls-1" d="M14,15H60a3,3,0,0,1,3,3V46a3,3,0,0,1-3,3H14a3,3,0,0,1-3-3V18A3,3,0,0,1,14,15Z" transform="translate(868 71)"/>
    <path id="Path_19" data-name="Path 19" class="cls-1" d="M14,15H60a3,3,0,0,1,3,3V46a3,3,0,0,1-3,3H14a3,3,0,0,1-3-3V18A3,3,0,0,1,14,15Z" transform="translate(878 85)"/>
    <circle id="Ellipse_434" data-name="Ellipse 434" class="cls-1" cx="7" cy="7" r="7" transform="translate(903 110)"/>
    <line id="Line_13" data-name="Line 13" class="cls-2" x1="52" transform="translate(879 90)"/>
    <path id="Path_47" data-name="Path 47" class="cls-3" d="M0,0H14.067" transform="translate(879 100)"/>
    <path id="Path_46" data-name="Path 46" class="cls-3" d="M6.3,0H0" transform="translate(882 108)"/>
    <line id="Line_16" data-name="Line 16" class="cls-2" x1="2" transform="translate(896 117)"/>
    <line id="Line_17" data-name="Line 17" class="cls-2" x1="2" transform="translate(932 117)"/>
    <line id="Line_18" data-name="Line 18" class="cls-2" x1="10" transform="translate(918 94)"/>
    <line id="Line_19" data-name="Line 19" class="cls-2" x1="4" transform="translate(912 94)"/>
    <circle id="Ellipse_4" data-name="Ellipse 4" class="cls-1" cx="7" cy="7" r="7" transform="translate(913 110)"/>
  </g>
</svg>
