<svg xmlns="http://www.w3.org/2000/svg"  class="no-connection-gray-icon" viewBox="0 0 46 69.004">
  <defs>
    <style>
      no-connection-gray-icon .cls-1 {
        fill: #e3e0eb;
      }

      no-connection-gray-icon .cls-1, no-connection-gray-icon .cls-2, no-connection-gray-icon .cls-3, no-connection-gray-icon .cls-4 {
        stroke: #cfcae2;
        stroke-width: 2px;
      }

      no-connection-gray-icon .cls-1, no-connection-gray-icon .cls-2, no-connection-gray-icon .cls-3 {
        stroke-miterlimit: 10;
      }

      no-connection-gray-icon .cls-2, no-connection-gray-icon .cls-4 {
        fill: none;
      }

      no-connection-gray-icon .cls-3 {
        fill: #fff;
      }

      no-connection-gray-icon .cls-4 {
        stroke-linecap: round;
      }
    </style>
  </defs>
  <g id="Group_2289" data-name="Group 2289" transform="translate(-1087 -674.868)">
    <path id="Path_1508" data-name="Path 1508" class="cls-1" d="M24.327,28v4a2.828,2.828,0,0,1-3,3.043H16A6.963,6.963,0,0,0,9,42c0,3.866,3.066,6.171,6.932,6.171l12.639-.008a3,3,0,0,1,3,3c0,1.469.068,2.258.068,2.576a2.088,2.088,0,1,0,4.176,0V51.4s.867-7.376-7.244-7.376H15.932c-3.661,0-3.244-4.991.068-4.991h5.327s7.244.732,7.244-7.033V28Z" transform="translate(1084 687)"/>
    <line id="Line_311" data-name="Line 311" class="cls-2" x1="3" transform="translate(1096 701)"/>
    <line id="Line_312" data-name="Line 312" class="cls-2" x2="3" transform="translate(1121 701)"/>
    <path id="Path_1509" data-name="Path 1509" class="cls-3" d="M19,12s0-7,0-7.05A2,2,0,0,1,23,5v7" transform="translate(1084 689)"/>
    <path id="Path_1510" data-name="Path 1510" class="cls-3" d="M31,12s0-7,0-7.05A2,2,0,0,1,35,5v7" transform="translate(1082 689)"/>
    <path id="Path_1511" data-name="Path 1511" class="cls-4" d="M3,0h9" transform="translate(1085 695)"/>
    <path id="Path_1512" data-name="Path 1512" class="cls-4" d="M3-.132v-9" transform="translate(1107 685)"/>
    <path id="Path_1513" data-name="Path 1513" class="cls-4" d="M3,0h9" transform="translate(1120 695)"/>
    <path id="Path_1514" data-name="Path 1514" class="cls-3" d="M38,12c0,9-3.662,15-11,15S16,21,16,12Z" transform="translate(1083 689)"/>
    <line id="Line_313" data-name="Line 313" class="cls-2" y2="2" transform="translate(1104 704)"/>
    <line id="Line_314" data-name="Line 314" class="cls-2" y2="2" transform="translate(1116 704)"/>
    <line id="Line_315" data-name="Line 315" class="cls-2" y2="2" transform="translate(1110 711)"/>
    <path id="Path_1515" data-name="Path 1515" class="cls-4" d="M3-.132l6-7" transform="translate(1116 687.632)"/>
    <path id="Path_1516" data-name="Path 1516" class="cls-4" d="M3-.132l-6-7" transform="translate(1098 687.632)"/>
  </g>
</svg>
