<svg version="1.1" xmlns="http://www.w3.org/2000/svg" xmlns:xlink="http://www.w3.org/1999/xlink" x="0px" y="0px"
	 viewBox="0 0 150 150" style="enable-background:new 0 0 150 150;" xml:space="preserve">
<path  d="M55.5,4.2H10.6C7,4.2,4.2,7,4.2,10.6S7,17,10.6,17h27.3C17,30.3,4.2,52.5,4.2,77.1c0,30.2,19.3,56.8,49.1,67.8
	c0.7,0.3,1.5,0.4,2.2,0.4c2.6,0,5.1-1.6,6-4.2c1.2-3.3-0.5-7-3.8-8.2C33,123.8,17,101.9,17,77.1c0-21.8,12.3-41.3,32.1-51.8v30.2
	c0,3.5,2.9,6.4,6.4,6.4s6.4-2.9,6.4-6.4V10.6C61.9,7,59,4.2,55.5,4.2z M138.9,132.5h-27.3c20.9-13.3,33.7-35.5,33.7-60.1
	c0-30.2-19.3-56.8-49.1-67.8c-3.3-1.2-7,0.5-8.2,3.8c-1.2,3.3,0.5,7,3.8,8.2c24.7,9.1,40.7,30.9,40.7,55.7
	c0,21.8-12.3,41.3-32.1,51.8V94c0-3.5-2.9-6.4-6.4-6.4c-3.5,0-6.4,2.9-6.4,6.4v44.9c0,3.5,2.9,6.4,6.4,6.4h44.9
	c3.5,0,6.4-2.9,6.4-6.4S142.4,132.5,138.9,132.5z"/>
</svg>
