<?xml version="1.0" encoding="utf-8"?>
<svg version="1.1" xmlns="http://www.w3.org/2000/svg" xmlns:xlink="http://www.w3.org/1999/xlink" x="0px" y="0px"
	 viewBox="0 0 17 17" style="enable-background:new 0 0 17 17;" xml:space="preserve">
<path d="M16,1.4c-0.6,0-1,0.4-1,1v1.1c-1.5-2-3.9-3.2-6.5-3.2C4,0.3,0.3,4,0.3,8.5s3.7,8.3,8.3,8.3c4,0,7.4-2.8,8.1-6.8
	c0.1-0.4-0.2-0.8-0.6-0.9c-0.4-0.1-0.8,0.2-0.9,0.6c-0.6,3.2-3.4,5.5-6.6,5.5c-3.7,0-6.8-3-6.8-6.8c0-3.7,3-6.8,6.8-6.8
	c2.3,0,4.4,1.2,5.6,3h-1.5c-0.6,0-1,0.4-1,1s0.4,1,1,1H16c0.6,0,1-0.4,1-1V2.4C17,1.8,16.6,1.4,16,1.4z"/>
</svg>
