<?xml version="1.0" encoding="utf-8"?>
<!-- Generator: Adobe Illustrator 24.0.1, SVG Export Plug-In . SVG Version: 6.00 Build 0)  -->
<svg version="1.1" id="Layer_1" xmlns="http://www.w3.org/2000/svg" xmlns:xlink="http://www.w3.org/1999/xlink" x="0px" y="0px"
	 viewBox="0 0 24 24" style="enable-background:new 0 0 24 24;" xml:space="preserve">
<style type="text/css">
	.st0{fill:none;stroke:#FFFFFF;stroke-width:2;stroke-linecap:round;stroke-linejoin:round;stroke-miterlimit:10;}
</style>
<g>
	<path class="st0" d="M14.8,9h7V2"/>
	<path class="st0" d="M1.8,9C3.3,4.9,7,2,11.4,2s8.1,2.9,9.6,7"/>
	<g>
		<path class="st0" d="M8.8,15h-7v7"/>
		<path class="st0" d="M21.8,15c-1.5,4.1-5.2,7-9.6,7S4,19.1,2.5,15"/>
	</g>
</g>
</svg>
