<?xml version="1.0" encoding="utf-8"?>
<!-- Generator: Adobe Illustrator 24.1.2, SVG Export Plug-In . SVG Version: 6.00 Build 0)  -->
<svg version="1.1" id="Capa_1" xmlns="http://www.w3.org/2000/svg" xmlns:xlink="http://www.w3.org/1999/xlink" x="0px" y="0px"
	 viewBox="0 0 24 12" style="enable-background:new 0 0 24 12;" xml:space="preserve">
<style type="text/css">
	.st0{fill:#A1A1A1;stroke:#A1A1A1;stroke-width:2;stroke-linecap:round;stroke-linejoin:round;}
	.st1{fill:#FFFFFF;stroke:#707070;stroke-width:2;stroke-linecap:round;stroke-linejoin:round;}
</style>
<path class="st0" d="M18,11H6c-2.8,0-5-2.2-5-5s2.2-5,5-5h12c2.8,0,5,2.2,5,5S20.8,11,18,11z"/>
<path class="st1" d="M6,11c-2.8,0-5-2.2-5-5s2.2-5,5-5s5,2.2,5,5S8.8,11,6,11z"/>
</svg>
