<svg xmlns="http://www.w3.org/2000/svg" viewBox="0 0 45 45">
    <defs>
        <style>.cls-1{fill:#512c54;}.cls-2{fill:none;}.cls-3{fill:#f8744e;}.cls-4{fill:#3e98a8;}.cls-5{fill:#d93625;}.cls-6{fill:#03717d;}.cls-7{fill:#0db4c5;}</style>
    </defs>
    <g id="Layer_2" data-name="Layer 2">
        <g id="Layer_4" data-name="Layer 4">
            <circle class="cls-1" cx="22.5" cy="22.5" r="22.5"/>
            <circle class="cls-2" cx="22.5" cy="22.5" r="22.5"/>
            <path class="cls-3" d="M44.91,20.59A22.46,22.46,0,0,0,18.31.4a17.48,17.48,0,0,1,.79,29.73,26.7,26.7,0,0,0,4.62,2.42A17.51,17.51,0,0,1,40.5,20,17.31,17.31,0,0,1,44.91,20.59Z"/>
            <path class="cls-4" d="M0,22.5a22.46,22.46,0,0,0,1.73,8.66,17.42,17.42,0,0,0,17.37-1A26.72,26.72,0,0,1,7,7.75c0-.54,0-1.07,0-1.6A22.43,22.43,0,0,0,0,22.5Z"/>
            <path class="cls-5" d="M18.31.4A22.38,22.38,0,0,0,7.05,6.15c0,.53,0,1.06,0,1.6A26.72,26.72,0,0,0,19.1,30.13,17.48,17.48,0,0,0,18.31.4Z"/>
            <path class="cls-6" d="M42.36,33.08a26.67,26.67,0,0,1-8.61,1.42,26.75,26.75,0,0,1-10-2,17.58,17.58,0,0,0-.72,5,17.22,17.22,0,0,0,1.66,7.39A22.51,22.51,0,0,0,42.36,33.08Z"/>
            <path class="cls-7" d="M45,22.5c0-.64,0-1.28-.09-1.91A17.31,17.31,0,0,0,40.5,20,17.51,17.51,0,0,0,23.72,32.55a26.75,26.75,0,0,0,10,2,26.67,26.67,0,0,0,8.61-1.42A22.48,22.48,0,0,0,45,22.5Z"/>
        </g>
    </g>
</svg>