<svg xmlns="http://www.w3.org/2000/svg" viewBox="0 0 45 45">
    <defs>
        <style>.cls-1{fill:#f7715d;}.cls-2{fill:#38ba88;}.cls-3{fill:#fcc37c;}.cls-4{fill:#ba553a;}.cls-5{fill:#01a58d;}.cls-6{fill:#ccc65e;}.cls-7{fill:#775b56;}.cls-8{fill:#594a46;}</style>
    </defs>
    <g id="Layer_2" data-name="Layer 2">
        <g id="Trama">
            <path class="cls-1" d="M34.28,18.89a36.75,36.75,0,0,1-.46-4.6c-.58,1.34-1.21,2.64-1.91,3.91Q33.11,18.5,34.28,18.89Z"/>
            <path class="cls-2" d="M23.36,17.05a38.73,38.73,0,0,1,8.55,1.15c.7-1.27,1.33-2.57,1.91-3.91,0-.51,0-1,0-1.54a37.93,37.93,0,0,1,1.09-9A22.25,22.25,0,0,0,26.63.39,23.18,23.18,0,0,1,27,4.5,23.37,23.37,0,0,1,23.36,17.05Z"/>
            <path class="cls-3" d="M0,22.5c0,.61,0,1.21.08,1.8A38,38,0,0,1,22.5,17l.86,0A23.37,23.37,0,0,0,27,4.5,23.18,23.18,0,0,0,26.63.39,22.46,22.46,0,0,0,0,22.5Z"/>
            <path class="cls-4" d="M31.91,18.2A44.9,44.9,0,0,1,7.2,39,22.49,22.49,0,0,0,41.07,35.2a38,38,0,0,1-6.79-16.31Q33.11,18.5,31.91,18.2Z"/>
            <path class="cls-5" d="M31.91,18.2a38.73,38.73,0,0,0-8.55-1.15A23.46,23.46,0,0,1,3.5,28a24.53,24.53,0,0,1-2.86-.18A22.48,22.48,0,0,0,7.2,39,44.9,44.9,0,0,0,31.91,18.2Z"/>
            <path class="cls-6" d="M23.36,17.05l-.86,0A38,38,0,0,0,.08,24.3a21.35,21.35,0,0,0,.56,3.52A24.53,24.53,0,0,0,3.5,28,23.46,23.46,0,0,0,23.36,17.05Z"/>
            <path class="cls-7" d="M34.28,18.89A38.14,38.14,0,0,1,44.92,24.3c0-.59.08-1.19.08-1.8A22.46,22.46,0,0,0,36.64,5a44.44,44.44,0,0,1-2.82,9.29A36.75,36.75,0,0,0,34.28,18.89Z"/>
            <path class="cls-5" d="M33.78,12.75c0,.52,0,1,0,1.54A44.44,44.44,0,0,0,36.64,5q-.86-.69-1.77-1.29A37.93,37.93,0,0,0,33.78,12.75Z"/>
            <path class="cls-8" d="M41.07,35.2a22.34,22.34,0,0,0,3.85-10.9,38.14,38.14,0,0,0-10.64-5.41A38,38,0,0,0,41.07,35.2Z"/>
        </g>
    </g>
</svg>