<?xml version="1.0" encoding="utf-8"?>
<!-- Generator: Adobe Illustrator 22.1.0, SVG Export Plug-In . SVG Version: 6.00 Build 0)  -->
<svg version="1.1" id="Layer_1" xmlns="http://www.w3.org/2000/svg" xmlns:xlink="http://www.w3.org/1999/xlink" x="0px" y="0px"
	 viewBox="0 0 207 64" style="enable-background:new 0 0 207 64;" xml:space="preserve">
<style type="text/css">
	.st0{fill:none;}
	.st1{fill:#E45625;}
	.st2{fill:#C93D17;}
	.st3{fill:#FF9E16;}
	.st4{fill:#D37A18;}
	.st5{fill:#FFFFFF;}
	.st6{fill:#F7941E;}
</style>
<rect class="st0" width="207" height="64"/>
<g>
	<path class="st1" d="M32,47.2c-8.4,0-15.2-6.8-15.2-15.2S23.6,16.8,32,16.8v-5.9c-11.7,0-21.1,9.5-21.1,21.1S20.3,53.1,32,53.1
		c4.1,0,8-1.2,11.2-3.2l-3.1-5C37.7,46.4,35,47.2,32,47.2z"/>
	<path class="st2" d="M16.8,32c0,8.4,6.8,15.2,15.2,15.2c3,0,5.7-0.9,8.1-2.3L38.3,42c-1.8,1.1-4,1.8-6.3,1.8
		c-6.5,0-11.8-5.3-11.8-11.8S25.5,20.2,32,20.2v-3.4C23.6,16.8,16.8,23.6,16.8,32z"/>
	<path class="st3" d="M53.1,32c0-11.7-9.5-21.1-21.1-21.1v5.9c8.4,0,15.2,6.8,15.2,15.2c0,5.4-2.9,10.2-7.2,12.9l3.1,5
		C49.2,46.2,53.1,39.6,53.1,32z"/>
	<path class="st4" d="M43.8,32c0,4.2-2.2,7.9-5.6,10l1.8,2.9c4.3-2.7,7.2-7.5,7.2-12.9c0-8.4-6.8-15.2-15.2-15.2v3.4
		C38.5,20.2,43.8,25.5,43.8,32z"/>
</g>
<path class="st5" d="M68.7,22.5v0.3c0,2.5-1,4.9-4.2,4.9c-3.4,0-4.5-2.2-4.5-7.1s1.1-7.1,4.5-7.1c3.9,0,4.1,2.9,4.1,4.3V18h-2.2
	v-0.2c0-1.3-0.4-2.7-1.9-2.6c-1.6,0-2.3,1-2.3,5.4s0.7,5.5,2.3,5.5c1.8,0,2-2,2-3.3v-0.2L68.7,22.5L68.7,22.5z"/>
<path class="st5" d="M71.4,17.1l1.8,7.7l0,0l1.6-7.7H77l-2.8,10.6c-0.8,2.8-1.5,3.2-3.6,3.1c-0.3,0-0.6,0-0.8-0.1v-1.6
	c0.2,0,0.4,0.1,0.7,0.1c0.7,0,1.2-0.2,1.4-0.8l0.3-0.8l-2.9-10.5H71.4z"/>
<path class="st5" d="M78.2,13.8h2.1v4.6l0,0c0.4-0.9,1.2-1.5,2.3-1.5c1.6,0,3.2,0.7,3.2,5.3c0,3.5-1,5.5-3.4,5.5
	c-1.5,0-2-0.9-2.2-1.5l0,0v1.3h-1.9L78.2,13.8L78.2,13.8z M81.8,26c1.4,0,1.7-1.5,1.7-3.8c0-2.8-0.4-3.7-1.6-3.7
	c-1.6,0-1.9,1.4-1.9,3.9C80.1,24.6,80.4,26,81.8,26"/>
<path class="st5" d="M89.1,22.5v0.6c0,1.4,0.2,3.1,1.7,3.1s1.6-1.7,1.6-2.3h1.9c0,2.3-1.4,3.7-3.6,3.7c-1.7,0-3.8-0.5-3.8-5.2
	c0-2.7,0.6-5.5,3.8-5.5c2.9,0,3.6,1.7,3.6,4.6v1.1h-5.2V22.5z M92.4,21.1v-0.6c0-1.3-0.4-2.3-1.6-2.3c-1.3,0-1.7,1.3-1.7,2.6V21
	L92.4,21.1L92.4,21.1z"/>
<path class="st5" d="M96.1,17.1h2.1v1.6l0,0c0.5-1.1,1.2-1.9,2.4-1.9c0.2,0,0.4,0,0.5,0.1V19c-0.2,0-0.5-0.1-0.9-0.1
	c-0.9,0-2.1,0.4-2.1,2.3v6.1H96L96.1,17.1L96.1,17.1z"/>
<path class="st5" d="M102.1,13.8h2.1v4.6l0,0c0.4-0.9,1.2-1.5,2.3-1.5c1.6,0,3.2,0.7,3.2,5.3c0,3.5-1,5.5-3.4,5.5
	c-1.5,0-2-0.9-2.2-1.5l0,0v1.3h-1.9L102.1,13.8L102.1,13.8z M105.8,26c1.4,0,1.7-1.5,1.7-3.8c0-2.8-0.4-3.7-1.6-3.7
	c-1.6,0-1.9,1.4-1.9,3.9C104.1,24.6,104.4,26,105.8,26"/>
<path class="st5" d="M118,25.3c0,0.4,0.2,0.7,0.5,0.7c0.1,0,0.3,0,0.3-0.1v1.3c-0.2,0.1-0.6,0.2-1,0.2c-0.9,0-1.7-0.4-1.7-1.4l0,0
	c-0.6,1-1.4,1.5-2.6,1.5c-1.6,0-2.7-0.9-2.7-2.9c0-2.3,1-2.8,2.4-3.2l1.6-0.4c0.7-0.2,1.2-0.4,1.2-1.3s-0.3-1.5-1.4-1.5
	c-1.4,0-1.6,1-1.6,2h-1.9c0-2.2,0.9-3.4,3.6-3.4c1.8,0,3.3,0.7,3.3,2.5C118,19.3,118,25.3,118,25.3z M116.1,22
	c-0.5,0.4-1.7,0.7-2.3,1c-0.6,0.3-0.8,0.9-0.8,1.7c0,0.9,0.4,1.5,1.3,1.5c1.2,0,1.8-0.9,1.8-2.4V22z"/>
<path class="st5" d="M120.1,17.1h1.9v1.2h0.1c0.5-0.9,1.5-1.5,2.6-1.5c1.6,0,2.5,0.7,2.5,2.8v7.7h-2.1v-7c0-1.3-0.4-1.8-1.4-1.8
	c-0.8,0-1.6,0.7-1.6,2v6.9H120L120.1,17.1L120.1,17.1z"/>
<polygon class="st5" points="129.3,13.8 131.3,13.8 131.3,21.4 131.4,21.4 134.5,17.1 136.8,17.1 133.8,21.1 137.2,27.4 135,27.4 
	132.5,22.7 131.3,24.1 131.3,27.4 129.3,27.4 "/>
<g>
	<g>
		<path class="st6" d="M32,27.9c-2.4,0-4.3,1.9-4.3,4.3s1.9,4.3,4.3,4.3s4.3-1.9,4.3-4.3C36.3,29.8,34.4,27.9,32,27.9"/>
	</g>
	<g>
		<path class="st6" d="M32,40.6c-4.7,0-8.4-3.8-8.4-8.4s3.8-8.4,8.4-8.4c4.7,0,8.4,3.8,8.4,8.4S36.7,40.6,32,40.6z M32,24.7
			c-4.1,0-7.4,3.3-7.4,7.4s3.3,7.4,7.4,7.4s7.4-3.3,7.4-7.4S36.1,24.7,32,24.7z"/>
	</g>
	<g>
		<path class="st6" d="M26.1,29.7c0,0.9-0.7,1.6-1.6,1.6s-1.6-0.7-1.6-1.6s0.7-1.6,1.6-1.6S26.1,28.8,26.1,29.7"/>
	</g>
	<g>
		<path class="st6" d="M41.1,29.7c0,0.9-0.7,1.6-1.6,1.6c-0.9,0-1.6-0.7-1.6-1.6s0.7-1.6,1.6-1.6C40.4,28.1,41.1,28.8,41.1,29.7"/>
	</g>
	<g>
		<path class="st6" d="M38.3,38.7c0,0.9-0.7,1.6-1.6,1.6c-0.9,0-1.6-0.7-1.6-1.6c0-0.9,0.7-1.6,1.6-1.6
			C37.6,37.2,38.3,37.9,38.3,38.7"/>
	</g>
	<g>
		<path class="st6" d="M33.6,24.2c0,0.9-0.7,1.6-1.6,1.6s-1.6-0.7-1.6-1.6s0.7-1.6,1.6-1.6C32.9,22.7,33.6,23.4,33.6,24.2"/>
	</g>
	<g>
		<path class="st6" d="M28.8,38.7c0,0.9-0.7,1.6-1.6,1.6s-1.6-0.7-1.6-1.6c0-0.9,0.7-1.6,1.6-1.6C28.1,37.2,28.8,37.9,28.8,38.7"/>
	</g>
</g>
<g>
	<path class="st3" d="M60.1,49.5V35.2h3.3c1.1,0,1.9,0.1,2.5,0.3c0.6,0.2,1.1,0.6,1.5,1c0.5,0.6,0.9,1.3,1.1,2.3
		c0.2,0.9,0.3,2.1,0.3,3.5c0,1.4-0.1,2.6-0.4,3.5c-0.2,0.9-0.6,1.7-1.1,2.3c-0.4,0.5-0.9,0.8-1.5,1c-0.6,0.2-1.4,0.3-2.5,0.3H60.1z
		 M62.8,47.4h0.6c0.5,0,1,0,1.2-0.1c0.3-0.1,0.5-0.2,0.7-0.4c0.3-0.4,0.5-0.9,0.6-1.6c0.1-0.7,0.2-1.7,0.2-2.9
		c0-1.2-0.1-2.1-0.2-2.9c-0.1-0.7-0.3-1.3-0.6-1.6c-0.2-0.2-0.4-0.3-0.7-0.4c-0.3-0.1-0.7-0.1-1.2-0.1h-0.6V47.4z"/>
	<path class="st3" d="M70.5,49.5V35.2h2.6v14.3H70.5z"/>
	<path class="st3" d="M82.4,49.5l-0.4-0.8c-0.3,0.4-0.7,0.6-1.1,0.8c-0.4,0.2-0.9,0.3-1.5,0.3c-1.5,0-2.7-0.6-3.5-1.9
		c-0.8-1.3-1.2-3.1-1.2-5.5c0-2.4,0.4-4.3,1.2-5.5c0.8-1.3,1.9-1.9,3.5-1.9c1.3,0,2.3,0.4,3.1,1.3c0.8,0.9,1.1,2,1.1,3.5
		c0,0,0,0,0,0c0,0,0,0,0,0c0,0,0,0,0,0h-2.5c0-0.9-0.2-1.6-0.5-2.1c-0.3-0.5-0.7-0.7-1.3-0.7c-0.7,0-1.2,0.4-1.5,1.3
		c-0.3,0.9-0.5,2.2-0.5,4c0,1.9,0.2,3.2,0.5,4.1c0.3,0.9,0.9,1.3,1.6,1.3c0.5,0,0.9-0.2,1.2-0.6c0.3-0.4,0.4-0.9,0.4-1.6v-1.4h-1.8
		v-1.9h4.2v7.2H82.4z"/>
	<path class="st3" d="M85.5,49.5V35.2h2.6v14.3H85.5z"/>
	<path class="st3" d="M91.9,49.5V37.4h-2.6v-2.2h7.9v2.2h-2.6v12.1H91.9z"/>
	<path class="st3" d="M97.2,49.5l2.9-14.3h3.4l2.8,14.3h-2.6l-0.5-3.1h-3l-0.5,3.1H97.2z M100.7,44.2h2.1l-1.1-6.6L100.7,44.2z"/>
	<path class="st3" d="M107.2,49.5V35.2h2.6v12h4.9v2.2H107.2z"/>
	<path class="st3" d="M119.9,49.5V35.2h3.5c1.9,0,3.2,0.3,4,1c0.8,0.7,1.2,1.8,1.2,3.3c0,1.3-0.4,2.4-1.2,3.1
		c-0.8,0.7-2,1.1-3.5,1.1h-1.4v5.9H119.9z M122.6,41.7c0.1,0,0.2,0,0.3,0c0.1,0,0.2,0,0.4,0c1,0,1.7-0.2,2.1-0.5
		c0.4-0.4,0.6-1,0.6-1.8c0-0.8-0.2-1.3-0.6-1.7c-0.4-0.3-1-0.5-1.9-0.5c-0.1,0-0.3,0-0.5,0s-0.3,0-0.5,0V41.7z"/>
	<path class="st3" d="M130.2,49.5V35.2h2.6v12h4.9v2.2H130.2z"/>
	<path class="st3" d="M137.7,49.5l2.9-14.3h3.4l2.8,14.3h-2.6l-0.5-3.1h-3l-0.5,3.1H137.7z M141.2,44.2h2.1l-1.1-6.6L141.2,44.2z"/>
	<path class="st3" d="M149.3,49.5V37.4h-2.6v-2.2h7.9v2.2H152v12.1H149.3z"/>
	<path class="st3" d="M155.7,49.5V35.2h7.3v2.2h-4.6V41h3.5v2.2h-3.5v6.2H155.7z"/>
	<path class="st3" d="M163.8,42.4c0-2.4,0.4-4.3,1.2-5.5c0.8-1.3,1.9-1.9,3.5-1.9c1.5,0,2.7,0.6,3.5,1.9c0.8,1.3,1.2,3.1,1.2,5.5
		c0,2.4-0.4,4.3-1.2,5.5c-0.8,1.3-1.9,1.9-3.5,1.9c-1.5,0-2.7-0.6-3.5-1.9C164.2,46.7,163.8,44.8,163.8,42.4z M166.5,42.4
		c0,1.8,0.2,3.2,0.5,4c0.3,0.9,0.8,1.3,1.5,1.3c0.7,0,1.2-0.4,1.5-1.3c0.3-0.9,0.5-2.2,0.5-4c0-1.8-0.2-3.2-0.5-4
		c-0.3-0.9-0.8-1.3-1.5-1.3c-0.7,0-1.2,0.4-1.5,1.3C166.6,39.2,166.5,40.6,166.5,42.4z"/>
	<path class="st3" d="M183.4,49.5h-2.7l-1.9-5.9c-0.2,0-0.3,0-0.5,0s-0.4,0-0.6,0h-0.4v5.9h-2.7V35.2h3.5c1,0,1.8,0.1,2.3,0.2
		s1,0.3,1.4,0.6c0.5,0.3,0.9,0.8,1.1,1.4c0.3,0.6,0.4,1.3,0.4,2c0,0.9-0.2,1.6-0.5,2.2c-0.4,0.6-0.9,1.1-1.6,1.5L183.4,49.5z
		 M177.4,41.7c0.1,0,0.2,0,0.2,0c0.1,0,0.2,0,0.4,0c1,0,1.7-0.2,2.1-0.5c0.4-0.4,0.6-1,0.6-1.8c0-0.8-0.2-1.3-0.6-1.7
		c-0.4-0.3-1.1-0.5-1.9-0.5c-0.2,0-0.4,0-0.7,0c0,0-0.1,0-0.1,0V41.7z"/>
	<path class="st3" d="M185.2,49.5V35.2h3.5l1.8,7.5c0.1,0.3,0.1,0.7,0.2,1.2c0.1,0.5,0.1,1.2,0.2,1.9c0-0.7,0-1.3,0.1-1.9
		s0.1-1,0.2-1.3l1.8-7.5h3.5v14.3H194l0-9.2c0-0.1,0-0.4,0-0.9c0-0.5,0.1-1.2,0.1-2.1c-0.1,0.3-0.1,0.7-0.2,1.2s-0.2,1-0.4,1.8
		l-2.1,9.3h-1.4l-2.1-9.3c-0.2-0.8-0.3-1.4-0.4-1.8s-0.2-0.8-0.2-1.2c0.1,0.9,0.1,1.6,0.1,2.1c0,0.5,0,0.8,0,0.9l0,9.2H185.2z"/>
</g>
</svg>
