<?xml version="1.0" encoding="utf-8"?>
<!-- Generator: Adobe Illustrator 24.3.0, SVG Export Plug-In . SVG Version: 6.00 Build 0)  -->
<svg version="1.1" id="Layer_1" xmlns="http://www.w3.org/2000/svg" xmlns:xlink="http://www.w3.org/1999/xlink" x="0px" y="0px"
	 viewBox="0 0 106 36" style="enable-background:new 0 0 106 36;" xml:space="preserve">
<style type="text/css">
	.st0{fill:#C24700;}
	.st1{fill:#FFFFFF;}
	.st2{fill:#4285F4;}
	.st3{fill:#EA4335;}
	.st4{fill:#FBBC05;}
	.st5{fill:#34A853;}
</style>
<g id="transfer-icon-2">
	<path id="transfer-2" class="st0" d="M63.3,22.1l-3-3c-0.3-0.3-0.8-0.3-1.1,0c-0.3,0.3-0.3,0.8,0,1.1c0,0,0,0,0,0l1.7,1.7H44.6
		c-0.4,0-0.8,0.3-0.9,0.7c0,0.4,0.3,0.8,0.7,0.9c0.1,0,0.1,0,0.2,0h16.3l-1.7,1.7c-0.3,0.3-0.3,0.8,0,1.1c0,0,0,0,0,0
		c0.3,0.3,0.8,0.3,1.1,0l3-3c0.1-0.1,0.1-0.2,0.2-0.2c0.1-0.2,0.1-0.4,0-0.6C63.4,22.3,63.3,22.2,63.3,22.1z M61.2,12.8H44.9
		l1.7-1.7c0.3-0.3,0.3-0.8,0-1.1c0,0,0,0,0,0c-0.3-0.3-0.8-0.3-1.1,0l0,0l-3,3c-0.2,0.2-0.3,0.6-0.1,0.9c0,0.1,0.1,0.2,0.2,0.2l3,3
		c0.3,0.3,0.8,0.3,1.1,0c0.3-0.3,0.3-0.8,0-1.1c0,0,0,0,0,0l-1.8-1.7h16.3c0.4,0,0.8-0.3,0.8-0.8c0,0,0,0,0,0
		C62,13.2,61.6,12.9,61.2,12.8L61.2,12.8z"/>
</g>
<circle class="st0" cx="88" cy="18" r="18"/>
<path id="Path_113-3" class="st1" d="M87.4,12.8V8.6h-1.7V24c-0.1,0.9,0.1,1.8,0.7,2.5c0.7,0.5,1.5,0.8,2.4,0.7h1.6v-1.5
	c-0.5,0.1-1,0.1-1.5,0.1c-0.5,0-0.9-0.1-1.2-0.5c-0.2-0.4-0.3-0.8-0.2-1.3v-9.5h2.9V13L87.4,12.8z"/>
<g id="Group_3863-2">
	<g id="Group_3860-2">
		<g id="Ellipse_5-2-2">
			<circle class="st1" cx="18" cy="18" r="18"/>
		</g>
	</g>
</g>
<circle class="st2" cx="13" cy="14.9" r="5.8"/>
<circle class="st3" cx="22.6" cy="17.7" r="2.9"/>
<circle class="st4" cx="22.6" cy="24.9" r="3.4"/>
<circle class="st5" cx="26.9" cy="14.4" r="1.4"/>
</svg>
