<svg id="Group_1078" data-name="Group 1078" xmlns="http://www.w3.org/2000/svg" width="29" height="26.992" viewBox="0 0 29 26.992">

  <path id="Path_615" data-name="Path 615" class="class-1" d="M3.5,5.521V3.5H25.631V5.521" transform="translate(-0.113 -0.113)"/>
  <path id="Path_616" data-name="Path 616" class="class-1" d="M3.387,9.16A3.247,3.247,0,0,1,.5,5.888V3.675A3.085,3.085,0,0,1,3.675.5H25.325A3.085,3.085,0,0,1,28.5,3.675V5.888A3.18,3.18,0,0,1,25.613,9.16"/>
  <path id="Path_617" data-name="Path 617" class="class-1" d="M22.635,3.6,23.6,23.036a3.392,3.392,0,0,1-3.368,3.56H9.068A3.392,3.392,0,0,1,5.7,23.036L6.566,3.6" transform="translate(-0.196 -0.117)"/>
  <line id="Line_125" data-name="Line 125" class="class-1" y1="22.997" transform="translate(15.607 3.483)"/>
  <line id="Line_126" data-name="Line 126" class="class-1" x1="0.577" y1="22.997" transform="translate(18.974 3.483)"/>
</svg>
