<?xml version="1.0" encoding="utf-8"?>
<!-- Generator: Adobe Illustrator 19.2.0, SVG Export Plug-In . SVG Version: 6.00 Build 0)  -->
<svg version="1.1" id="Layer_1" xmlns="http://www.w3.org/2000/svg" xmlns:xlink="http://www.w3.org/1999/xlink" x="0px" y="0px"
	 width="24px" height="24px" viewBox="0 0 24 24" style="enable-background:new 0 0 24 24;" xml:space="preserve">

<g>
	<path class="class-1" d="M12.7,3.8L2.3,14.5c-1.8,1.8-1.8,4.8,0,6.7C4.1,23,7,23,8.8,21.1L22.1,7.6c1.4-1.4,1.4-3.6,0-5
		c-1.4-1.4-3.6-1.4-4.9,0L6.6,13.4c-0.9,0.9-0.9,2.4,0,3.3c0.9,0.9,2.4,0.9,3.3,0l7.8-7.9"/>
</g>
</svg>
