<?xml version="1.0" encoding="utf-8"?>
<!-- Generator: Adobe Illustrator 19.2.0, SVG Export Plug-In . SVG Version: 6.00 Build 0)  -->
<svg version="1.1" id="Layer_1" xmlns="http://www.w3.org/2000/svg" xmlns:xlink="http://www.w3.org/1999/xlink" x="0px" y="0px"
	 width="24px" height="24px" viewBox="0 0 24 24" style="enable-background:new 0 0 24 24;" xml:space="preserve">

<g>
	<path class="class-1" d="M23.5,21.4c0,1.2-1,2.1-2.1,2.1H2.6c-1.2,0-2.1-1-2.1-2.1V8.6c0-1.2,1-2.1,2.1-2.1h18.8c1.2,0,2.1,1,2.1,2.1
		V21.4z"/>
	<path class="class-1" d="M7.5,4.5V4c0-1.4,1.2-2.5,2.6-2.5h3.8c1.4,0,2.6,1.1,2.6,2.5v0.5"/>
	<line class="class-1" x1="13.5" y1="12.5" x2="23.5" y2="12.5"/>
	<line class="class-1" x1="0.4" y1="12.5" x2="10.5" y2="12.5"/>
	<path class="class-1" d="M13.5,14c0,0.3-0.2,0.5-0.5,0.5h-2.1c-0.3,0-0.5-0.2-0.5-0.5V12c0-0.3,0.2-0.5,0.5-0.5H13
		c0.3,0,0.5,0.2,0.5,0.5L13.5,14L13.5,14z"/>
</g>
</svg>
