<svg enable-background="new 0 0 24 24" viewBox="0 0 24 24"
    xmlns="http://www.w3.org/2000/svg">
    <g >
        <path d="m7 8h-6v15h6" class="icon-stroke icon-stroke-color-b"/>
        <path d="m17 23h6v-15h-6" class="icon-stroke icon-stroke-color-b"/>
        <path d="m7 1h10v22h-10z" class="icon-stroke icon-stroke-color-a"/>
        <g>
            <path d="m3 8v-5" class="icon-stroke icon-stroke-color-a"/>
            <path d="m11 5h2" class="icon-stroke icon-stroke-color-a"/>
            <path d="m11 9h2" class="icon-stroke icon-stroke-color-a"/>
            <path d="m11 13h2" class="icon-stroke icon-stroke-color-a"/>
            <path d="m21 16h2" class="icon-stroke icon-stroke-color-a"/>
            <path d="m21 12h2" class="icon-stroke icon-stroke-color-a"/>
            <path d="m1 12h2" class="icon-stroke icon-stroke-color-a"/>
            <path d="m1 16h2" class="icon-stroke icon-stroke-color-a"/>
        </g>
    </g>
</svg>