<svg xmlns="http://www.w3.org/2000/svg" viewBox="0 0 16.493 4.061">
  <g transform="translate(-337.784 -55.216)">
    <path class="stroke fat" d="M0,0H.061" transform="translate(352.276 57.216)"/>
    <path class="stroke fat" d="M0,0H.061" transform="translate(346.03 57.216)"/>
    <line class="stroke fat" x2="0.061" transform="translate(339.784 57.216)"/>
  </g>
</svg>
