<svg version="1.1" xmlns="http://www.w3.org/2000/svg" viewBox="0 0 64 60">
  <path class="class-2" d="M13 37h9l11 4h9c1.656 0 3 1.343 3 3s-1.344 3-3 3H31c-1.656 0-3 1.343-3 3"/>
  <path class="class-2" d="M44 46l16-5c1.656 0 3 1.343 3 3 0 .997-1 2-1 2L37 59h-2l-17-6h-4"/>
  <circle cx="45" cy="30" r="5" class="class-2"/>
  <circle cx="29" cy="22" r="5" class="class-2"/>
  <path class="class-2" d="M10 51H8m-2 0H4M31 8V0m-4 14V6m4 4v2M27 2v2m16 12V8m4 14v-8m-4 4v2m4-10v2M0 35h12c.553 0 1 .447 1 1v18c0 .553-.447 1-1 1H0"/>
</svg>
