<svg xmlns="http://www.w3.org/2000/svg" viewBox="0 0 16.493 4.061">
  <g>
    <g>
      <path class="class-2" />
      <path class="class-2"  d="M8.247 2v.061"/>
      <path class="class-2"  d="M2 2v.061"  />
    </g>
  </g>
</svg>
