<svg enable-background="new 0 0 24 24" viewBox="0 0 24 24" 
    xmlns="http://www.w3.org/2000/svg">
    <g fill="none" stroke-linecap="round" stroke-linejoin="round" stroke-miterlimit="10" stroke-width="1">
        <path d="m1 10h22" stroke="#890000"/>
        <path d="m21 23h-18c-1.105 0-2-.896-2-2v-16c0-1.105.896-2 2-2h18c1.105 0 2 .896 2 2v16c0 1.104-.896 2-2 2z" stroke="#890000"/>
        <g stroke="#c30000">
            <path d="m6 1v5"/>
            <path d="m18 1v5"/>
            <circle cx="16.5" cy="16.5" r="2.5"/>
        </g>
    </g>
</svg>