<svg enable-background="new 0 0 24 24" viewBox="0 0 24 24" xmlns="http://www.w3.org/2000/svg">
    <g>
        <path class="icon-stroke icon-stroke-color-a" d="m22.553 17-7.64-13.316c-1.288-2.245-4.539-2.245-5.827 0l-7.639 13.316c-1.278 2.228.337 5 2.913 5h15.28c2.576 0 4.191-2.772 2.913-5z"/>
        <g>
            <path class="icon-stroke icon-stroke-color-b" d="m12 14v-6"/>
            <path class="icon-stroke icon-stroke-color-b" d="m12 18v.01"/>
        </g>
    </g>
</svg>
