<svg xmlns="http://www.w3.org/2000/svg" class="doc-icon" viewBox="0 0 42 52">
  <defs>
    <style>
      .doc-icon .cls-1 {
        fill: #f8e17e;
      }

      .doc-icon .cls-1, .doc-icon .cls-2, .doc-icon .cls-3, .doc-icon .cls-4 {
        stroke: #44377b;
        stroke-width: 2px;
      }

      .doc-icon .cls-1, .doc-icon .cls-2, .doc-icon .cls-3 {
        stroke-miterlimit: 10;
      }

      .doc-icon .cls-2, .doc-icon .cls-4 {
        fill: none;
      }

      .doc-icon .cls-3 {
        fill: #fff;
        stroke-linejoin: round;
      }
    </style>
  </defs>
  <g id="Group_2287" data-name="Group 2287" transform="translate(-1089 -484)">
    <path id="Path_1542" data-name="Path 1542" class="cls-1" d="M33.727,1,41,7.9V51H1V1Z" transform="translate(1089 484)"/>
    <line id="Line_364" data-name="Line 364" class="cls-2" x2="30" transform="translate(1095 505)"/>
    <line id="Line_365" data-name="Line 365" class="cls-2" x2="30" transform="translate(1095 509)"/>
    <line id="Line_366" data-name="Line 366" class="cls-2" x2="30" transform="translate(1095 513)"/>
    <line id="Line_367" data-name="Line 367" class="cls-2" x2="14" transform="translate(1095 517)"/>
    <rect id="Rectangle_1685" data-name="Rectangle 1685" class="cls-3" width="15" height="6" transform="translate(1096 493)"/>
    <path id="Path_1543" data-name="Path 1543" class="cls-4" d="M-1232.719,6769.2v8h8" transform="translate(2354.719 -6284.197)"/>
  </g>
</svg>
