<svg xmlns="http://www.w3.org/2000/svg" class="setup-icon" viewBox="0 0 55 55">
  <defs>
    <style>
      .setup-icon .cls-1 {
        fill: #94caee;
      }

      .setup-icon .cls-1, .setup-icon .cls-2, .setup-icon .cls-3, .setup-icon .cls-4 {
        stroke: #44377b;
        stroke-miterlimit: 10;
        stroke-width: 2px;
      }

      .setup-icon .cls-2 {
        fill: none;
      }

      .setup-icon .cls-2, .setup-icon .cls-3, .setup-icon .cls-4 {
        stroke-linejoin: round;
      }

      .setup-icon .cls-3 {
        fill: #a2a7a7;
      }

      .setup-icon .cls-4 {
        fill: #f8e17e;
      }
    </style>
  </defs>
  <g id="Group_2296" data-name="Group 2296" transform="translate(-882.5 -482.5)">
    <path id="Path_1535" data-name="Path 1535" class="cls-1" d="M13.788,15H48.212A2.764,2.764,0,0,1,51,17.736V52.264A2.764,2.764,0,0,1,48.212,55H13.788A2.764,2.764,0,0,1,11,52.264V17.736A2.764,2.764,0,0,1,13.788,15Z" transform="translate(879 475)"/>
    <line id="Line_348" data-name="Line 348" class="cls-2" x2="10" transform="translate(894 495)"/>
    <path id="Path_1537" data-name="Path 1537" class="cls-3" d="M54.412,7.353H49.647V2.588L45.676,1,42.5,4.971,39.324,1,35.353,2.588V7.353H30.588L29,11.323,32.971,14.5,29,17.676l1.588,3.971h4.765v4.765L39.324,28,42.5,24.029,45.676,28l3.971-1.588V21.647h4.765L56,17.676,52.029,14.5,56,11.323Z" transform="translate(854.5 508.5)"/>
    <path id="Path_1538" data-name="Path 1538" class="cls-3" d="M54.412,7.353H49.647V2.588L45.676,1,42.5,4.971,39.324,1,35.353,2.588V7.353H30.588L29,11.323,32.971,14.5,29,17.676l1.588,3.971h4.765v4.765L39.324,28,42.5,24.029,45.676,28l3.971-1.588V21.647h4.765L56,17.676,52.029,14.5,56,11.323Z" transform="translate(880.5 482.5)"/>
    <circle id="Ellipse_444" data-name="Ellipse 444" class="cls-4" cx="5" cy="5" r="5" transform="translate(892 518)"/>
    <circle id="Ellipse_445" data-name="Ellipse 445" class="cls-4" cx="5" cy="5" r="5" transform="translate(918 492)"/>
    <line id="Line_349" data-name="Line 349" class="cls-2" x2="2" transform="translate(894 499)"/>
    <line id="Line_350" data-name="Line 350" class="cls-2" x2="2" transform="translate(898 499)"/>
    <line id="Line_354" data-name="Line 354" class="cls-2" x2="2" transform="translate(896 523)"/>
    <line id="Line_355" data-name="Line 355" class="cls-2" x2="2" transform="translate(922 497)"/>
    <line id="Line_351" data-name="Line 351" class="cls-2" x2="10" transform="translate(916 525)"/>
    <line id="Line_352" data-name="Line 352" class="cls-2" x2="2" transform="translate(920 521)"/>
    <line id="Line_353" data-name="Line 353" class="cls-2" x2="2" transform="translate(924 521)"/>
  </g>
</svg>
